orgs        MP
porgs
mp_ddx
ppar
orgs2
org_org2



sellist      SYS
cp_conv
login
sys_dd
sys_ddx



os_dd         OS
os_ddx
os_flds
osulaz 
osos 
amgr



mp_dd         MP
ppzirorn
valute
tecajevi 
zemlje



in_flds        IN
in_dd  

pl_dd          PL
pl_flds
pl_ddx
pl_vrtro
ah_dd
ah_ddx



sk_dd         SK
sk_flds
sk_ddx
dacvw_dd
klas
sk_unupl
izv_sk
pr_unups
vrskdok



fak_flds       FAK
fak_dd
fak_ddx
arzm_blag



aca_flds      ACPV



bl_dd         BL
bl_ddx
bl_flds
bl_blag
bl_vrpn
bl_vrstr
bl_trsk



mat_dd         MAT
mat_ddx
mat_flds
mat_pos
mk_sklad  
mk_art
mk_npl


zmscmm        SYS
zmsmisc
zmstvbe
guitrace
asci_tab
appls
selrep
presclib
guitrace
sysdpd
